89,
1331,
385,
2240,
1458,
482,
1844,
1478,
1204,
575,
1978,
1476,
1496,
1516,
2041,
2088,
499,
2114,
2107,
2191,
2100,
2190,
2116,
2171,
2263,
2111,
2073,
2045,
2200,
2118